time,keysExamined,docsExamined,name				time,keysExamined,docsExamined,name
249, 153869, 52042, original_parse_LIMIT_1		      |	301, 153869, 44257, ptsfinest_parse_LIMIT_1
20, 17244, 3003, original_parse_MIN_0.01_MAX_0.1	      |	18, 17244, 1, ptsfinest_parse_MIN_0.01_MAX_0.1
40, 17244, 17241, original_parse_WITHIN_0.001		      |	47, 17244, 17241, ptsfinest_parse_WITHIN_0.001
251, 153869, 52042, original_parse_LIMIT_10		      |	263, 153869, 44257, ptsfinest_parse_LIMIT_10
20, 17244, 3003, original_parse_MIN_0.1_MAX_1		      |	18, 17244, 0, ptsfinest_parse_MIN_0.1_MAX_1
349, 153869, 153865, original_parse_WITHIN_0.01		      |	373, 153869, 153865, ptsfinest_parse_WITHIN_0.01
254, 153869, 52042, original_parse_LIMIT_100		      |	258, 153869, 44257, ptsfinest_parse_LIMIT_100
20, 17244, 3003, original_parse_MIN_1_MAX_10		      |	18, 17244, 0, ptsfinest_parse_MIN_1_MAX_10
1278, 580152, 580148, original_parse_WITHIN_0.1		      |	1349, 580152, 580148, ptsfinest_parse_WITHIN_0.1
246, 153869, 52042, original_parse_LIMIT_1000		      |	257, 153869, 44257, ptsfinest_parse_LIMIT_1000
23, 17244, 3003, original_parse_MIN_10_MAX_100		      |	19, 17244, 57, ptsfinest_parse_MIN_10_MAX_100
1284, 583213, 583213, original_parse_WITHIN_1		      |	1407, 583213, 583213, ptsfinest_parse_WITHIN_1
251, 153869, 52042, original_parse_LIMIT_10000		      |	273, 153869, 44257, ptsfinest_parse_LIMIT_10000
70, 45770, 11863, original_parse_MIN_100_MAX_1000	      |	69, 45770, 8025, ptsfinest_parse_MIN_100_MAX_1000
1254, 583213, 583213, original_parse_WITHIN_10		      |	1336, 583213, 583213, ptsfinest_parse_WITHIN_10
25, 10000, 10000, original_uniform_dense_LIMIT_1	      |	30, 10000, 10000, ptsfinest_uniform_dense_LIMIT_1
7, 2501, 2209, original_uniform_dense_MIN_0.1_MAX_1	      |	3, 2501, 0, ptsfinest_uniform_dense_MIN_0.1_MAX_1
18, 10000, 10000, original_uniform_dense_WITHIN_0.001	      |	20, 10000, 10000, ptsfinest_uniform_dense_WITHIN_0.001
34, 10000, 10000, original_uniform_dense_LIMIT_10	      |	35, 10000, 10000, ptsfinest_uniform_dense_LIMIT_10
5, 2501, 2209, original_uniform_dense_MIN_1_MAX_10	      |	2, 2501, 2, ptsfinest_uniform_dense_MIN_1_MAX_10
19, 10000, 10000, original_uniform_dense_WITHIN_0.01	      |	23, 10000, 10000, ptsfinest_uniform_dense_WITHIN_0.01
28, 10000, 10000, original_uniform_dense_LIMIT_100	      |	33, 10000, 10000, ptsfinest_uniform_dense_LIMIT_100
12, 5001, 4371, original_uniform_dense_MIN_10_MAX_100	      |	5, 5001, 252, ptsfinest_uniform_dense_MIN_10_MAX_100
18, 10000, 10000, original_uniform_dense_WITHIN_0.1	      |	20, 10000, 10000, ptsfinest_uniform_dense_WITHIN_0.1
27, 10000, 10000, original_uniform_dense_LIMIT_1000	      |	32, 10000, 10000, ptsfinest_uniform_dense_LIMIT_1000
27, 10000, 10000, original_uniform_dense_MIN_100_MAX_1000     |	33, 10000, 9746, ptsfinest_uniform_dense_MIN_100_MAX_1000
21, 10000, 10000, original_uniform_dense_WITHIN_1	      |	24, 10000, 10000, ptsfinest_uniform_dense_WITHIN_1
28, 10000, 10000, original_uniform_dense_LIMIT_10000	      |	35, 10000, 10000, ptsfinest_uniform_dense_LIMIT_10000
22, 20000, 1351, original_uniform_dense_MIN_1000_MAX_10000    |	22, 20000, 0, ptsfinest_uniform_dense_MIN_1000_MAX_10000
20, 10000, 10000, original_uniform_dense_WITHIN_10	      |	21, 10000, 10000, ptsfinest_uniform_dense_WITHIN_10
0, 3, 1, original_uniform_sparse_LIMIT_1		      |	0, 3, 1, ptsfinest_uniform_sparse_LIMIT_1
0, 3, 1, original_uniform_sparse_MIN_0.1_MAX_1		      |	0, 3, 0, ptsfinest_uniform_sparse_MIN_0.1_MAX_1
0, 3, 1, original_uniform_sparse_WITHIN_0.001		      |	0, 3, 1, ptsfinest_uniform_sparse_WITHIN_0.001
0, 92, 35, original_uniform_sparse_LIMIT_10		      |	0, 92, 35, ptsfinest_uniform_sparse_LIMIT_10
0, 3, 1, original_uniform_sparse_MIN_1_MAX_10		      |	0, 3, 0, ptsfinest_uniform_sparse_MIN_1_MAX_10
0, 3, 1, original_uniform_sparse_WITHIN_0.01		      |	0, 3, 1, ptsfinest_uniform_sparse_WITHIN_0.01
1, 325, 129, original_uniform_sparse_LIMIT_100		      |	1, 325, 129, ptsfinest_uniform_sparse_LIMIT_100
0, 3, 1, original_uniform_sparse_MIN_10_MAX_100		      |	0, 3, 0, ptsfinest_uniform_sparse_MIN_10_MAX_100
0, 3, 1, original_uniform_sparse_WITHIN_0.1		      |	0, 3, 1, ptsfinest_uniform_sparse_WITHIN_0.1
5, 2861, 1133, original_uniform_sparse_LIMIT_1000	      |	6, 2861, 1133, ptsfinest_uniform_sparse_LIMIT_1000
0, 3, 1, original_uniform_sparse_MIN_100_MAX_1000	      |	0, 3, 0, ptsfinest_uniform_sparse_MIN_100_MAX_1000
0, 3, 1, original_uniform_sparse_WITHIN_1		      |	0, 3, 1, ptsfinest_uniform_sparse_WITHIN_1
75, 51835, 10108, original_uniform_sparse_LIMIT_10000	      |	85, 51835, 10100, ptsfinest_uniform_sparse_LIMIT_10000
0, 6, 0, original_uniform_sparse_MIN_1000_MAX_10000	      |	0, 6, 0, ptsfinest_uniform_sparse_MIN_1000_MAX_10000
0, 68, 66, original_uniform_sparse_WITHIN_10		      |	0, 68, 66, ptsfinest_uniform_sparse_WITHIN_10
0, 25, 8, original_gaussian_center_LIMIT_1		      |	0, 25, 7, ptsfinest_gaussian_center_LIMIT_1
0, 13, 0, original_gaussian_center_MIN_0.1_MAX_1	      |	0, 13, 0, ptsfinest_gaussian_center_MIN_0.1_MAX_1
0, 13, 1, original_gaussian_center_WITHIN_0.001		      |	0, 13, 1, ptsfinest_gaussian_center_WITHIN_0.001
0, 259, 92, original_gaussian_center_LIMIT_10		      |	0, 259, 89, ptsfinest_gaussian_center_LIMIT_10
0, 13, 0, original_gaussian_center_MIN_1_MAX_10		      |	0, 13, 0, ptsfinest_gaussian_center_MIN_1_MAX_10
0, 13, 1, original_gaussian_center_WITHIN_0.01		      |	0, 13, 1, ptsfinest_gaussian_center_WITHIN_0.01
2, 1001, 417, original_gaussian_center_LIMIT_100	      |	2, 1001, 409, ptsfinest_gaussian_center_LIMIT_100
0, 13, 0, original_gaussian_center_MIN_10_MAX_100	      |	0, 13, 0, ptsfinest_gaussian_center_MIN_10_MAX_100
0, 24, 13, original_gaussian_center_WITHIN_0.1		      |	0, 24, 13, ptsfinest_gaussian_center_WITHIN_0.1
7, 3402, 1702, original_gaussian_center_LIMIT_1000	      |	9, 3402, 1675, ptsfinest_gaussian_center_LIMIT_1000
0, 13, 0, original_gaussian_center_MIN_100_MAX_1000	      |	0, 13, 0, ptsfinest_gaussian_center_MIN_100_MAX_1000
2, 956, 953, original_gaussian_center_WITHIN_1		      |	2, 956, 953, ptsfinest_gaussian_center_WITHIN_1
95, 78698, 10209, original_gaussian_center_LIMIT_10000	      |	110, 78698, 10000, ptsfinest_gaussian_center_LIMIT_10000
0, 24, 6, original_gaussian_center_MIN_1000_MAX_10000	      |	0, 24, 6, ptsfinest_gaussian_center_MIN_1000_MAX_10000
19, 9990, 9988, original_gaussian_center_WITHIN_10	      |	21, 9990, 9988, ptsfinest_gaussian_center_WITHIN_10
0, 70, 21, original_gaussian_outside_1			      |	0, 70, 19, ptsfinest_gaussian_outside_1
0, 2, 0, original_gaussian_outside_MIN_0.1_MAX_1	      |	0, 2, 0, ptsfinest_gaussian_outside_MIN_0.1_MAX_1
0, 2, 0, original_gaussian_outside_WITHIN_0.001		      |	0, 2, 0, ptsfinest_gaussian_outside_WITHIN_0.001
0, 70, 21, original_gaussian_outside_10			      |	0, 70, 19, ptsfinest_gaussian_outside_10
0, 2, 0, original_gaussian_outside_MIN_1_MAX_10		      |	0, 2, 0, ptsfinest_gaussian_outside_MIN_1_MAX_10
0, 2, 0, original_gaussian_outside_WITHIN_0.01		      |	0, 2, 0, ptsfinest_gaussian_outside_WITHIN_0.01
1, 428, 206, original_gaussian_outside_100		      |	1, 428, 202, ptsfinest_gaussian_outside_100
0, 2, 0, original_gaussian_outside_MIN_10_MAX_100	      |	0, 2, 0, ptsfinest_gaussian_outside_MIN_10_MAX_100
0, 11, 10, original_gaussian_outside_WITHIN_0.1		      |	0, 11, 10, ptsfinest_gaussian_outside_WITHIN_0.1
4, 1710, 1042, original_gaussian_outside_1000		      |	4, 1710, 1034, ptsfinest_gaussian_outside_1000
0, 2, 0, original_gaussian_outside_MIN_100_MAX_1000	      |	0, 2, 0, ptsfinest_gaussian_outside_MIN_100_MAX_1000
1, 693, 686, original_gaussian_outside_WITHIN_1		      |	1, 693, 686, ptsfinest_gaussian_outside_WITHIN_1
117, 84929, 10168, original_gaussian_outside_10000	      |	129, 84929, 10000, ptsfinest_gaussian_outside_10000
0, 6, 3, original_gaussian_outside_MIN_1000_MAX_10000	      |	0, 6, 3, ptsfinest_gaussian_outside_MIN_1000_MAX_10000
21, 9995, 9993, original_gaussian_outside_WITHIN_10	      |	22, 9995, 9993, ptsfinest_gaussian_outside_WITHIN_10
