time,keysExamined,docsExamined,name				time,keysExamined,docsExamined,name
1426, 153869, 52042, original_wiredtiger_parse_LIMIT_1	      |	1535, 153869, 44257, ptsfinest_wiredtiger_parse_LIMIT_1
25, 17244, 3003, original_wiredtiger_parse_MIN_0.01_MAX_0.1   |	22, 17244, 1, ptsfinest_wiredtiger_parse_MIN_0.01_MAX_0.1
60, 17244, 17241, original_wiredtiger_parse_WITHIN_0.001      |	65, 17244, 17241, ptsfinest_wiredtiger_parse_WITHIN_0.001
1277, 153869, 52042, original_wiredtiger_parse_LIMIT_10	      |	1563, 153869, 44257, ptsfinest_wiredtiger_parse_LIMIT_10
25, 17244, 3003, original_wiredtiger_parse_MIN_0.1_MAX_1      |	19, 17244, 0, ptsfinest_wiredtiger_parse_MIN_0.1_MAX_1
491, 153869, 153865, original_wiredtiger_parse_WITHIN_0.01    |	512, 153869, 153865, ptsfinest_wiredtiger_parse_WITHIN_0.01
1354, 153869, 52042, original_wiredtiger_parse_LIMIT_100      |	1473, 153869, 44257, ptsfinest_wiredtiger_parse_LIMIT_100
24, 17244, 3003, original_wiredtiger_parse_MIN_1_MAX_10	      |	22, 17244, 0, ptsfinest_wiredtiger_parse_MIN_1_MAX_10
1911, 580152, 580148, original_wiredtiger_parse_WITHIN_0.1    |	1930, 580152, 580148, ptsfinest_wiredtiger_parse_WITHIN_0.1
1313, 153869, 52042, original_wiredtiger_parse_LIMIT_1000     |	1501, 153869, 44257, ptsfinest_wiredtiger_parse_LIMIT_1000
27, 17244, 3003, original_wiredtiger_parse_MIN_10_MAX_100     |	21, 17244, 57, ptsfinest_wiredtiger_parse_MIN_10_MAX_100
1864, 583213, 583213, original_wiredtiger_parse_WITHIN_1      |	1975, 583213, 583213, ptsfinest_wiredtiger_parse_WITHIN_1
1422, 153869, 52042, original_wiredtiger_parse_LIMIT_10000    |	1789, 153869, 44257, ptsfinest_wiredtiger_parse_LIMIT_10000
102, 45770, 11863, original_wiredtiger_parse_MIN_100_MAX_1000 |	118, 45770, 8025, ptsfinest_wiredtiger_parse_MIN_100_MAX_1000
1893, 583213, 583213, original_wiredtiger_parse_WITHIN_10     |	2057, 583213, 583213, ptsfinest_wiredtiger_parse_WITHIN_10
41, 10000, 10000, original_wiredtiger_uniform_dense_LIMIT_1   |	42, 10000, 10000, ptsfinest_wiredtiger_uniform_dense_LIMIT_1
7, 2501, 2209, original_wiredtiger_uniform_dense_MIN_0.1_MAX_ |	2, 2501, 0, ptsfinest_wiredtiger_uniform_dense_MIN_0.1_MAX_1
26, 10000, 10000, original_wiredtiger_uniform_dense_WITHIN_0. |	24, 10000, 10000, ptsfinest_wiredtiger_uniform_dense_WITHIN_0
78, 10000, 10000, original_wiredtiger_uniform_dense_LIMIT_10  |	48, 10000, 10000, ptsfinest_wiredtiger_uniform_dense_LIMIT_10
7, 2501, 2209, original_wiredtiger_uniform_dense_MIN_1_MAX_10 |	2, 2501, 2, ptsfinest_wiredtiger_uniform_dense_MIN_1_MAX_10
26, 10000, 10000, original_wiredtiger_uniform_dense_WITHIN_0. |	26, 10000, 10000, ptsfinest_wiredtiger_uniform_dense_WITHIN_0
37, 10000, 10000, original_wiredtiger_uniform_dense_LIMIT_100 |	45, 10000, 10000, ptsfinest_wiredtiger_uniform_dense_LIMIT_10
15, 5001, 4371, original_wiredtiger_uniform_dense_MIN_10_MAX_ |	7, 5001, 252, ptsfinest_wiredtiger_uniform_dense_MIN_10_MAX_1
28, 10000, 10000, original_wiredtiger_uniform_dense_WITHIN_0. |	28, 10000, 10000, ptsfinest_wiredtiger_uniform_dense_WITHIN_0
39, 10000, 10000, original_wiredtiger_uniform_dense_LIMIT_100 |	49, 10000, 10000, ptsfinest_wiredtiger_uniform_dense_LIMIT_10
51, 10000, 10000, original_wiredtiger_uniform_dense_MIN_100_M |	58, 10000, 9746, ptsfinest_wiredtiger_uniform_dense_MIN_100_M
26, 10000, 10000, original_wiredtiger_uniform_dense_WITHIN_1  |	26, 10000, 10000, ptsfinest_wiredtiger_uniform_dense_WITHIN_1
61, 10000, 10000, original_wiredtiger_uniform_dense_LIMIT_100 |	60, 10000, 10000, ptsfinest_wiredtiger_uniform_dense_LIMIT_10
22, 20000, 1351, original_wiredtiger_uniform_dense_MIN_1000_M |	21, 20000, 0, ptsfinest_wiredtiger_uniform_dense_MIN_1000_MAX
27, 10000, 10000, original_wiredtiger_uniform_dense_WITHIN_10 |	32, 10000, 10000, ptsfinest_wiredtiger_uniform_dense_WITHIN_1
0, 3, 1, original_wiredtiger_uniform_sparse_LIMIT_1	      |	0, 3, 1, ptsfinest_wiredtiger_uniform_sparse_LIMIT_1
0, 3, 1, original_wiredtiger_uniform_sparse_MIN_0.1_MAX_1     |	0, 3, 0, ptsfinest_wiredtiger_uniform_sparse_MIN_0.1_MAX_1
0, 3, 1, original_wiredtiger_uniform_sparse_WITHIN_0.001      |	0, 3, 1, ptsfinest_wiredtiger_uniform_sparse_WITHIN_0.001
0, 92, 35, original_wiredtiger_uniform_sparse_LIMIT_10	      |	0, 92, 35, ptsfinest_wiredtiger_uniform_sparse_LIMIT_10
0, 3, 1, original_wiredtiger_uniform_sparse_MIN_1_MAX_10      |	0, 3, 0, ptsfinest_wiredtiger_uniform_sparse_MIN_1_MAX_10
0, 3, 1, original_wiredtiger_uniform_sparse_WITHIN_0.01	      |	0, 3, 1, ptsfinest_wiredtiger_uniform_sparse_WITHIN_0.01
1, 325, 129, original_wiredtiger_uniform_sparse_LIMIT_100     |	1, 325, 129, ptsfinest_wiredtiger_uniform_sparse_LIMIT_100
0, 3, 1, original_wiredtiger_uniform_sparse_MIN_10_MAX_100    |	0, 3, 0, ptsfinest_wiredtiger_uniform_sparse_MIN_10_MAX_100
0, 3, 1, original_wiredtiger_uniform_sparse_WITHIN_0.1	      |	0, 3, 1, ptsfinest_wiredtiger_uniform_sparse_WITHIN_0.1
6, 2861, 1133, original_wiredtiger_uniform_sparse_LIMIT_1000  |	7, 2861, 1133, ptsfinest_wiredtiger_uniform_sparse_LIMIT_1000
0, 3, 1, original_wiredtiger_uniform_sparse_MIN_100_MAX_1000  |	0, 3, 0, ptsfinest_wiredtiger_uniform_sparse_MIN_100_MAX_1000
0, 3, 1, original_wiredtiger_uniform_sparse_WITHIN_1	      |	0, 3, 1, ptsfinest_wiredtiger_uniform_sparse_WITHIN_1
85, 51835, 10108, original_wiredtiger_uniform_sparse_LIMIT_10 |	101, 51835, 10100, ptsfinest_wiredtiger_uniform_sparse_LIMIT_
0, 6, 0, original_wiredtiger_uniform_sparse_MIN_1000_MAX_1000 |	0, 6, 0, ptsfinest_wiredtiger_uniform_sparse_MIN_1000_MAX_100
0, 68, 66, original_wiredtiger_uniform_sparse_WITHIN_10	      |	0, 68, 66, ptsfinest_wiredtiger_uniform_sparse_WITHIN_10
1, 27, 14, original_wiredtiger_gaussian_center_LIMIT_1	      |	0, 27, 14, ptsfinest_wiredtiger_gaussian_center_LIMIT_1
0, 14, 0, original_wiredtiger_gaussian_center_MIN_0.1_MAX_1   |	0, 14, 0, ptsfinest_wiredtiger_gaussian_center_MIN_0.1_MAX_1
0, 14, 1, original_wiredtiger_gaussian_center_WITHIN_0.001    |	0, 14, 1, ptsfinest_wiredtiger_gaussian_center_WITHIN_0.001
0, 27, 14, original_wiredtiger_gaussian_center_LIMIT_10	      |	0, 27, 14, ptsfinest_wiredtiger_gaussian_center_LIMIT_10
0, 14, 0, original_wiredtiger_gaussian_center_MIN_1_MAX_10    |	0, 14, 0, ptsfinest_wiredtiger_gaussian_center_MIN_1_MAX_10
0, 14, 1, original_wiredtiger_gaussian_center_WITHIN_0.01     |	0, 14, 1, ptsfinest_wiredtiger_gaussian_center_WITHIN_0.01
3, 974, 379, original_wiredtiger_gaussian_center_LIMIT_100    |	2, 974, 373, ptsfinest_wiredtiger_gaussian_center_LIMIT_100
0, 14, 0, original_wiredtiger_gaussian_center_MIN_10_MAX_100  |	0, 14, 0, ptsfinest_wiredtiger_gaussian_center_MIN_10_MAX_100
0, 27, 17, original_wiredtiger_gaussian_center_WITHIN_0.1     |	0, 27, 17, ptsfinest_wiredtiger_gaussian_center_WITHIN_0.1
18, 3383, 1674, original_wiredtiger_gaussian_center_LIMIT_100 |	10, 3383, 1648, ptsfinest_wiredtiger_gaussian_center_LIMIT_10
0, 14, 0, original_wiredtiger_gaussian_center_MIN_100_MAX_100 |	0, 14, 0, ptsfinest_wiredtiger_gaussian_center_MIN_100_MAX_10
5, 958, 955, original_wiredtiger_gaussian_center_WITHIN_1     |	3, 958, 955, ptsfinest_wiredtiger_gaussian_center_WITHIN_1
126, 71025, 10214, original_wiredtiger_gaussian_center_LIMIT_ |	119, 71025, 10000, ptsfinest_wiredtiger_gaussian_center_LIMIT
0, 26, 9, original_wiredtiger_gaussian_center_MIN_1000_MAX_10 |	0, 26, 9, ptsfinest_wiredtiger_gaussian_center_MIN_1000_MAX_1
27, 9997, 9995, original_wiredtiger_gaussian_center_WITHIN_10 |	31, 9997, 9995, ptsfinest_wiredtiger_gaussian_center_WITHIN_1
0, 61, 21, original_wiredtiger_gaussian_outside_1	      |	0, 61, 21, ptsfinest_wiredtiger_gaussian_outside_1
0, 2, 0, original_wiredtiger_gaussian_outside_MIN_0.1_MAX_1   |	0, 2, 0, ptsfinest_wiredtiger_gaussian_outside_MIN_0.1_MAX_1
0, 2, 0, original_wiredtiger_gaussian_outside_WITHIN_0.001    |	0, 2, 0, ptsfinest_wiredtiger_gaussian_outside_WITHIN_0.001
0, 61, 21, original_wiredtiger_gaussian_outside_10	      |	0, 61, 21, ptsfinest_wiredtiger_gaussian_outside_10
0, 2, 0, original_wiredtiger_gaussian_outside_MIN_1_MAX_10    |	0, 2, 0, ptsfinest_wiredtiger_gaussian_outside_MIN_1_MAX_10
0, 2, 0, original_wiredtiger_gaussian_outside_WITHIN_0.01     |	0, 2, 0, ptsfinest_wiredtiger_gaussian_outside_WITHIN_0.01
1, 404, 190, original_wiredtiger_gaussian_outside_100	      |	1, 404, 187, ptsfinest_wiredtiger_gaussian_outside_100
0, 2, 0, original_wiredtiger_gaussian_outside_MIN_10_MAX_100  |	0, 2, 0, ptsfinest_wiredtiger_gaussian_outside_MIN_10_MAX_100
0, 15, 12, original_wiredtiger_gaussian_outside_WITHIN_0.1    |	0, 15, 12, ptsfinest_wiredtiger_gaussian_outside_WITHIN_0.1
5, 1690, 1021, original_wiredtiger_gaussian_outside_1000      |	6, 1690, 1011, ptsfinest_wiredtiger_gaussian_outside_1000
0, 2, 0, original_wiredtiger_gaussian_outside_MIN_100_MAX_100 |	0, 2, 0, ptsfinest_wiredtiger_gaussian_outside_MIN_100_MAX_10
2, 709, 702, original_wiredtiger_gaussian_outside_WITHIN_1    |	2, 709, 702, ptsfinest_wiredtiger_gaussian_outside_WITHIN_1
126, 87246, 10189, original_wiredtiger_gaussian_outside_10000 |	144, 87246, 10000, ptsfinest_wiredtiger_gaussian_outside_1000
0, 11, 3, original_wiredtiger_gaussian_outside_MIN_1000_MAX_1 |	0, 11, 2, ptsfinest_wiredtiger_gaussian_outside_MIN_1000_MAX_
27, 10000, 9998, original_wiredtiger_gaussian_outside_WITHIN_ |	30, 10000, 9998, ptsfinest_wiredtiger_gaussian_outside_WITHIN
